<svg width="16" height="16" viewBox="0 0 16 16" fill="none" xmlns="http://www.w3.org/2000/svg">
<path d="M13.3333 4L5.99999 11.3333L2.66666 8" stroke="#0E78F8" stroke-width="1.5" stroke-linecap="round" stroke-linejoin="round"/>
</svg>
